{
    "page": 1,
    "total_results": 10000,
    "total_pages": 500,
    "results": [
        {
            "popularity": 711.949,
            "vote_count": 719,
            "video": false,
            "poster_path": "/8WUVHemHFH2ZIP6NWkwlHWsyrEL.jpg",
            "id": 338762,
            "adult": false,
            "backdrop_path": "/lP5eKh8WOcPysfELrUpGhHJGZEH.jpg",
            "original_language": "en",
            "original_title": "Bloodshot",
            "genre_ids": [
                28,
                878
            ],
            "title": "Bloodshot",
            "vote_average": 7.3,
            "overview": "After he and his wife are murdered, marine Ray Garrison is resurrected by a team of scientists. Enhanced with nanotechnology, he becomes a superhuman, biotech killing machine—'Bloodshot'. As Ray first trains with fellow super-soldiers, he cannot recall anything from his former life. But when his memories flood back and he remembers the man that killed both him and his wife, he breaks out of the facility to get revenge, only to discover that there's more to the conspiracy than he thought.",
            "release_date": "2020-02-20"
        },
        {
            "popularity": 513.375,
            "vote_count": 2695,
            "video": false,
            "poster_path": "/xBHvZcjRiWyobQ9kxBhO6B2dtRI.jpg",
            "id": 419704,
            "adult": false,
            "backdrop_path": "/5BwqwxMEjeFtdknRV792Svo0K1v.jpg",
            "original_language": "en",
            "original_title": "Ad Astra",
            "genre_ids": [
                12,
                18,
                9648,
                878,
                53
            ],
            "title": "Ad Astra",
            "vote_average": 5.9,
            "overview": "The near future, a time when both hope and hardships drive humanity to look to the stars and beyond. While a mysterious phenomenon menaces to destroy life on planet Earth, astronaut Roy McBride undertakes a mission across the immensity of space and its many perils to uncover the truth about a lost expedition that decades before boldly faced emptiness and silence in search of the unknown.",
            "release_date": "2019-09-17"
        },
        {
            "popularity": 344.397,
            "vote_count": 812,
            "video": false,
            "poster_path": "/4U7hpTK0XTQBKT5X60bKmJd05ha.jpg",
            "id": 570670,
            "adult": false,
            "backdrop_path": "/uZMZyvarQuXLRqf3xdpdMqzdtjb.jpg",
            "original_language": "en",
            "original_title": "The Invisible Man",
            "genre_ids": [
                27,
                878,
                53
            ],
            "title": "The Invisible Man",
            "vote_average": 7,
            "overview": "When Cecilia's abusive ex takes his own life and leaves her his fortune, she suspects his death was a hoax. As a series of coincidences turn lethal, Cecilia works to prove that she is being hunted by someone nobody can see.",
            "release_date": "2020-02-26"
        },
        {
            "popularity": 313.778,
            "vote_count": 7870,
            "video": false,
            "poster_path": "/eivQmS3wqzqnQWILHLc4FsEfcXP.jpg",
            "id": 363088,
            "adult": false,
            "backdrop_path": "/6P3c80EOm7BodndGBUAJHHsHKrp.jpg",
            "original_language": "en",
            "original_title": "Ant-Man and the Wasp",
            "genre_ids": [
                28,
                12,
                35,
                878
            ],
            "title": "Ant-Man and the Wasp",
            "vote_average": 7,
            "overview": "Just when his time under house arrest is about to end, Scott Lang once again puts his freedom at risk to help Hope van Dyne and Dr. Hank Pym dive into the quantum realm and try to accomplish, against time and any chance of success, a very dangerous rescue mission.",
            "release_date": "2018-07-04"
        },
        {
            "popularity": 287.807,
            "vote_count": 2019,
            "video": false,
            "poster_path": "/h4VB6m0RwcicVEZvzftYZyKXs6K.jpg",
            "id": 495764,
            "adult": false,
            "backdrop_path": "/pbOOOT0ASXjP4aJZr5NyOjK9qix.jpg",
            "original_language": "en",
            "original_title": "Birds of Prey (and the Fantabulous Emancipation of One Harley Quinn)",
            "genre_ids": [
                28,
                35,
                80
            ],
            "title": "Birds of Prey (and the Fantabulous Emancipation of One Harley Quinn)",
            "vote_average": 7.1,
            "overview": "After her breakup with the Joker, Harley Quinn joins forces with singer Black Canary, assassin Huntress, and police detective Renee Montoya to help a young girl named Cassandra, who had a hit placed on her after she stole a rare diamond from crime lord Roman Sionis.",
            "release_date": "2020-02-05"
        },
        {
            "popularity": 269.235,
            "vote_count": 4736,
            "video": false,
            "poster_path": "/AkJQpZp9WoNdj7pLYSj1L0RcMMN.jpg",
            "id": 353081,
            "adult": false,
            "backdrop_path": "/aw4FOsWr2FY373nKSxbpNi3fz4F.jpg",
            "original_language": "en",
            "original_title": "Mission: Impossible - Fallout",
            "genre_ids": [
                28,
                12
            ],
            "title": "Mission: Impossible - Fallout",
            "vote_average": 7.3,
            "overview": "When an IMF mission ends badly, the world is faced with dire consequences. As Ethan Hunt takes it upon himself to fulfill his original briefing, the CIA begin to question his loyalty and his motives. The IMF team find themselves in a race against time, hunted by assassins while trying to prevent a global catastrophe.",
            "release_date": "2018-07-13"
        },
        {
            "popularity": 219.402,
            "vote_count": 834,
            "video": false,
            "poster_path": "/xnjvwfDulnOCy8qtYX0iqydmMhk.jpg",
            "id": 448119,
            "adult": false,
            "backdrop_path": "/xcUf6yIheo78btFqihlRLftdR3M.jpg",
            "original_language": "en",
            "original_title": "Dolittle",
            "genre_ids": [
                12,
                35,
                14,
                10751
            ],
            "title": "Dolittle",
            "vote_average": 6.8,
            "overview": "After losing his wife seven years earlier, the eccentric Dr. John Dolittle, famed doctor and veterinarian of Queen Victoria’s England, hermits himself away behind the high walls of Dolittle Manor with only his menagerie of exotic animals for company. But when the young queen falls gravely ill, a reluctant Dolittle is forced to set sail on an epic adventure to a mythical island in search of a cure, regaining his wit and courage as he crosses old adversaries and discovers wondrous creatures.",
            "release_date": "2020-01-01"
        },
        {
            "popularity": 217.705,
            "vote_count": 4,
            "video": false,
            "poster_path": "/j9vEMgw1Y7nG6gO1Zf516eAbVe5.jpg",
            "id": 587853,
            "adult": false,
            "backdrop_path": "/oKRxXFIND4GMNsjsTYdxKW67Mrk.jpg",
            "original_language": "id",
            "original_title": "Upin & Ipin: Keris Siamang Tunggal",
            "genre_ids": [],
            "title": "Upin & Ipin: Keris Siamang Tunggal",
            "vote_average": 7.1,
            "overview": "This new adventure film tells of the adorable twin brothers Upin and Ipin together with their friends Ehsan, Fizi, Mail, Jarjit, Mei Mei, and Susanti, and their quest to save a fantastical kingdom of Inderaloka from the evil Raja Bersiong. It all begins when Upin, Ipin, and their friends stumble upon a mystical kris that leads them straight into the kingdom. While trying to find their way back home, they are suddenly burdened with the task of restoring the kingdom back to its former glory. With help from Mat Jenin and Belalang, Upin, Ipin and their friends must overcome a series of challenging obstacles in this action-packed, magical and humorous adventure film produced by Les’ Copaque Production Sdn. Bhd",
            "release_date": "2019-05-09"
        },
        {
            "popularity": 212.719,
            "vote_count": 439,
            "video": false,
            "poster_path": "/3rQx8kJNfIZnlbILHUbRzK2HOng.jpg",
            "id": 508439,
            "adult": false,
            "backdrop_path": "/xFxk4vnirOtUxpOEWgA1MCRfy6J.jpg",
            "original_language": "en",
            "original_title": "Onward",
            "genre_ids": [
                12,
                16,
                35,
                14,
                10751
            ],
            "title": "Onward",
            "vote_average": 7.9,
            "overview": "In a suburban fantasy world, two teenage elf brothers embark on an extraordinary quest to discover if there is still a little magic left out there.",
            "release_date": "2020-02-29"
        },
        {
            "popularity": 204.772,
            "vote_count": 2645,
            "video": false,
            "poster_path": "/bB42KDdfWkOvmzmYkmK58ZlCa9P.jpg",
            "id": 512200,
            "adult": false,
            "backdrop_path": "/hreiLoPysWG79TsyQgMzFKaOTF5.jpg",
            "original_language": "en",
            "original_title": "Jumanji: The Next Level",
            "genre_ids": [
                28,
                12,
                35,
                14
            ],
            "title": "Jumanji: The Next Level",
            "vote_average": 6.8,
            "overview": "As the gang return to Jumanji to rescue one of their own, they discover that nothing is as they expect. The players will have to brave parts unknown and unexplored in order to escape the world’s most dangerous game.",
            "release_date": "2019-12-04"
        },
        {
            "popularity": 189.175,
            "vote_count": 3545,
            "video": false,
            "poster_path": "/db32LaOibwEliAmSL2jjDF6oDdj.jpg",
            "id": 181812,
            "adult": false,
            "backdrop_path": "/jOzrELAzFxtMx2I4uDGHOotdfsS.jpg",
            "original_language": "en",
            "original_title": "Star Wars: The Rise of Skywalker",
            "genre_ids": [
                28,
                12,
                878
            ],
            "title": "Star Wars: The Rise of Skywalker",
            "vote_average": 6.5,
            "overview": "The surviving Resistance faces the First Order once again as the journey of Rey, Finn and Poe Dameron continues. With the power and knowledge of generations behind them, the final battle begins.",
            "release_date": "2019-12-18"
        },
        {
            "popularity": 174.779,
            "vote_count": 4,
            "video": false,
            "poster_path": "/mew5d3ZzFfVxFyPZ8ydJb18UOpr.jpg",
            "id": 625985,
            "adult": false,
            "backdrop_path": "/j4B8G5yKRnTO655uvpQBXt4Ok08.jpg",
            "original_language": "ja",
            "original_title": "仮面ライダージオウNEXT TIME：ゲイツ、マジェスティ",
            "genre_ids": [
                28,
                12,
                878
            ],
            "title": "Kamen Rider Zi-O NEXT TIME: Geiz, Majesty",
            "vote_average": 7.8,
            "overview": "Geiz, Majesty is the first installment of the Kamen Rider Zi-O NEXT TIME series of V-Cinema films for Kamen Rider Zi-O. It focuses on the character Geiz Myokoin.",
            "release_date": "2020-02-28"
        },
        {
            "popularity": 168.23,
            "vote_count": 728,
            "video": false,
            "poster_path": "/z4A6mFOLTMZAhCSPRyrtzG0SPbd.jpg",
            "id": 475303,
            "adult": false,
            "backdrop_path": "/6fkqwqLEcDZOEAnBBfKAniwNxtx.jpg",
            "original_language": "en",
            "original_title": "A Rainy Day in New York",
            "genre_ids": [
                35,
                10749
            ],
            "title": "A Rainy Day in New York",
            "vote_average": 6.6,
            "overview": "Two young people arrive in New York to spend a weekend, but once they arrive they're met with bad weather and a series of adventures.",
            "release_date": "2019-07-26"
        },
        {
            "popularity": 160.402,
            "vote_count": 11957,
            "video": false,
            "poster_path": "/5vHssUeVe25bMrof1HyaPyWgaP.jpg",
            "id": 245891,
            "adult": false,
            "backdrop_path": "/iJlGxN0p1suzloBGvvBu3QSSlhT.jpg",
            "original_language": "en",
            "original_title": "John Wick",
            "genre_ids": [
                28,
                53
            ],
            "title": "John Wick",
            "vote_average": 7.2,
            "overview": "Ex-hitman John Wick comes out of retirement to track down the gangsters that took everything from him.",
            "release_date": "2014-10-22"
        },
        {
            "popularity": 158.595,
            "vote_count": 4871,
            "video": false,
            "poster_path": "/2bXbqYdUdNVa8VIWXVfclP2ICtT.jpg",
            "id": 420818,
            "adult": false,
            "backdrop_path": "/nRXO2SnOA75OsWhNhXstHB8ZmI3.jpg",
            "original_language": "en",
            "original_title": "The Lion King",
            "genre_ids": [
                12,
                10751
            ],
            "title": "The Lion King",
            "vote_average": 7.1,
            "overview": "Simba idolizes his father, King Mufasa, and takes to heart his own royal destiny. But not everyone in the kingdom celebrates the new cub's arrival. Scar, Mufasa's brother—and former heir to the throne—has plans of his own. The battle for Pride Rock is ravaged with betrayal, tragedy and drama, ultimately resulting in Simba's exile. With help from a curious pair of newfound friends, Simba will have to figure out how to grow up and take back what is rightfully his.",
            "release_date": "2019-07-12"
        },
        {
            "popularity": 152.12,
            "vote_count": 3297,
            "video": false,
            "poster_path": "/h6Wi81XNXCjTAcdstiCLRykN3Pa.jpg",
            "id": 330457,
            "adult": false,
            "backdrop_path": "/xJWPZIYOEFIjZpBL7SVBGnzRYXp.jpg",
            "original_language": "en",
            "original_title": "Frozen II",
            "genre_ids": [
                12,
                16,
                10751
            ],
            "title": "Frozen II",
            "vote_average": 7.1,
            "overview": "Elsa, Anna, Kristoff and Olaf head far into the forest to learn the truth about an ancient mystery of their kingdom.",
            "release_date": "2019-11-20"
        },
        {
            "popularity": 147.367,
            "vote_count": 873,
            "video": false,
            "poster_path": "/8ZX18L5m6rH5viSYpRnTSbb9eXh.jpg",
            "id": 619264,
            "adult": false,
            "backdrop_path": "/uNiTCaBIpw4vrRGEFKFm3VSt8Sm.jpg",
            "original_language": "es",
            "original_title": "El hoyo",
            "genre_ids": [
                18,
                27,
                878,
                53
            ],
            "title": "The Platform",
            "vote_average": 7.1,
            "overview": "A mysterious place, an indescribable prison, a deep hole. Two inmates living on each level. An unknown number of levels. A descending platform containing food for all of them. An inhuman fight for survival, but also an opportunity for solidarity…",
            "release_date": "2019-11-08"
        },
        {
            "popularity": 145.432,
            "vote_count": 1605,
            "video": false,
            "poster_path": "/aQvJ5WPzZgYVDrxLX4R6cLJCEaQ.jpg",
            "id": 454626,
            "adult": false,
            "backdrop_path": "/stmYfCUGd8Iy6kAMBr6AmWqx8Bq.jpg",
            "original_language": "en",
            "original_title": "Sonic the Hedgehog",
            "genre_ids": [
                28,
                35,
                878,
                10751
            ],
            "title": "Sonic the Hedgehog",
            "vote_average": 7.3,
            "overview": "Based on the global blockbuster videogame franchise from Sega, Sonic the Hedgehog tells the story of the world’s speediest hedgehog as he embraces his new home on Earth. In this live-action adventure comedy, Sonic and his new best friend team up to defend the planet from the evil genius Dr. Robotnik and his plans for world domination.",
            "release_date": "2020-02-12"
        },
        {
            "popularity": 143.992,
            "vote_count": 16,
            "video": false,
            "poster_path": "/iaTW57RK87v7ZrGkLKVofNH9YOr.jpg",
            "id": 505951,
            "adult": false,
            "backdrop_path": "/4zJbHJOshnAlQecHY5QjDvZQjeZ.jpg",
            "original_language": "ta",
            "original_title": "கண்ணும் கண்ணும் கொள்ளையடித்தால்",
            "genre_ids": [
                35,
                18,
                10749
            ],
            "title": "Kannum Kannum Kollaiyadithaal",
            "vote_average": 6.1,
            "overview": "Siddarth falls head-over-heels in love with Meera but things take a risky turn when they get into a messy situation with a dangerous man.",
            "release_date": "2020-02-28"
        },
        {
            "popularity": 141.622,
            "vote_count": 2946,
            "video": false,
            "poster_path": "/kbC6I0AOSLTHFA2dieyat9h8QHP.jpg",
            "id": 39538,
            "adult": false,
            "backdrop_path": "/57kqAPdVJTAJ4rnDTSVDx0f1JBu.jpg",
            "original_language": "en",
            "original_title": "Contagion",
            "genre_ids": [
                18,
                878,
                53
            ],
            "title": "Contagion",
            "vote_average": 6.4,
            "overview": "As an epidemic of a lethal airborne virus - that kills within days - rapidly grows, the worldwide medical community races to find a cure and control the panic that spreads faster than the virus itself.",
            "release_date": "2011-09-08"
        }
    ]
}
